{
    "index": {
        "download_fdroid": "Download F-Droid", 
        "gpg_signature": "PGP-handtekening", 
        "introduction": "F-Droid is een installeerbare catalogus van vrijesoftwareapps voor het Android-platform. De cliënt maakt het bladeren door apps, installeren en bijhouden van nieuwe updates op uw apparaat eenvoudig.", 
        "screenshot": "Schermafdruk van de F-Droid-app voor Android", 
        "title": "Wat is F-Droid?"
    }, 
    "navigation": {
        "about": "Over", 
        "browse": "Verken", 
        "contribute": "Bijdragen", 
        "documentation": "Documenten", 
        "forum": "Forum", 
        "issues": "Problemen", 
        "news": "Nieuws", 
        "repomaker": "Repomaker", 
        "tutorials": "Handleidingen"
    }, 
    "package": {
        "author": "Auteur", 
        "build_metadata": "Build-metadata", 
        "changelog": "Wijzigingslog", 
        "donate": "Doneer", 
        "download": "[file_extension] downloaden", 
        "flattr": "Flattr", 
        "gpg_signature": "PGP-handtekening", 
        "issue_tracker": "Probleemopvolging", 
        "liberapay": "Liberapay", 
        "license": "Licentie", 
        "minimum_android_version": "Deze versie vereist Android [android_version] of nieuwer.", 
        "new_in_version": "Nieuw in versie [latest_version]", 
        "packages": "Pakket", 
        "permissions": "Toestemmingen", 
        "signed_by_developer": "Het is gebouwd en getekend door de oorspronkelijke ontwikkelaar.", 
        "signed_by_fdroid": "Het is gebouwd en ondertekend door F-Droid, en is gegarandeerd om hetzelfde te zijn als <a href=\"[source_code_url]\"> deze tarball</a>.", 
        "source_code": "Broncode", 
        "suggest_downloading_via_fdroid": "Hoewel de APK-bestanden hieronder beschikbaar zijn zodat u de keuze heeft, moet u zich ervan bewust zijn dat u bij deze installatie geen updatemeldingen ontvangt en het een minder veilige manier is om te downloaden. Wij raden u aan de F-Droid-cliënt te installeren en gebruiken.", 
        "technical_info": "Technische info", 
        "version_info": "<b>Versie [package_version]</b> ([package_version_code]) - Toegevoegd op [package_added_date]", 
        "website": "Website"
    }, 
    "sidebars": {
        "donate": {
            "bank_transfer_name": "Naam", 
            "bitcoin_alt": "Doneer via Bitcoin", 
            "flattr_alt": "Doneer via Flattr", 
            "heading": "Doneer", 
            "liberapay_alt": "Doneer via Liberapay", 
            "litecoin_alt": "Doneer via Litecoin", 
            "paypal_alt": "Doneer via PayPal", 
            "powered_by_donations": "F-Droid is mogelijk gemaakt door jullie donaties!", 
            "via_bank_transfer": "Bankoverschrijving"
        }, 
        "last_updated": {
            "heading": "Laatst bijgewerkt"
        }, 
        "latest_packages": {
            "heading": "Nieuwste apps"
        }, 
        "news": {
            "heading": "Nieuws"
        }, 
        "search": {
            "heading": "Zoeken naar apps", 
            "noscript": "Vereist JavaScript om ingeschakeld te zijn"
        }
    }
}